Airbnb data analysis
…
top_10_neighborhood <- listings %>%
  group_by(city) %>%
  count(neighbourhood_cleansed) %>%
  arrange(city, desc(n))

top_10_neighborhood

## # A tibble: 167 x 3
## # Groups:   city [3]
##    city   neighbourhood_cleansed     n
##    <chr>  <chr>                  <int>
##  1 malaga Centro                  4327
##  2 malaga Este                     643
##  3 malaga Carretera de Cadiz       539
##  4 malaga Cruz De Humilladero      287
##  5 malaga Bailen-Miraflores        165
##  6 malaga Teatinos-Universidad     101
##  7 malaga Churriana                 99
##  8 malaga Ciudad Jardin             50
##  9 malaga Palma-Palmilla            41
## 10 malaga Puerto de la Torre        31
## # ... with 157 more rows
…
## 1 mallorca Entire home/apt                    20.8
## 2 mallorca Hotel room                         17.0
## 3 mallorca Private room                       19.6
## 4 mallorca Shared room                        21.5
## # A tibble: 6 x 3
## # Groups:   city [1]
##   city     bedrooms average_availability_30
##   <chr>    <chr>                      <dbl>
## 1 mallorca 1                           20.1
## 2 mallorca 2                           20.7
## 3 mallorca 3                           20.9
## 4 mallorca 4                           21.0
## 5 mallorca 5+                          20.6
## 6 mallorca <NA>                        18.7
## # A tibble: 53 x 3
## # Groups:   city [1]
##    city     neighbourhood_cleansed average_availability_30
##    <chr>    <chr>                                    <dbl>
##  1 mallorca Alar                                    19.6
##  2 mallorca Alcdia                                  21.6
##  3 mallorca Algaida                                   19.8
##  4 mallorca Andratx                                   21.7
##  5 mallorca Ariany                                    22.4
##  6 mallorca Art                                     22.9
##  7 mallorca Banyalbufar                               20.6
##  8 mallorca Bger                                    20.1
##  9 mallorca Binissalem                                19.2
## 10 mallorca Bunyola                                   20.9
## # ... with 43 more rows
…
## 2 sevilla Hotel room                         20.9
## 3 sevilla Private room                       18.8
## 4 sevilla Shared room                        19.3
## # A tibble: 7 x 3
## # Groups:   city [1]
##   city    bedrooms average_availability_30
##   <chr>   <chr>                      <dbl>
## 1 sevilla 0                           19.5
## 2 sevilla 1                           19.7
## 3 sevilla 2                           20.0
## 4 sevilla 3                           20.3
## 5 sevilla 4                           21.4
## 6 sevilla 5+                          22.5
## 7 sevilla <NA>                        28  
## # A tibble: 103 x 3
## # Groups:   city [1]
##    city    neighbourhood_cleansed average_availability_30
##    <chr>   <chr>                                    <dbl>
##  1 sevilla Aeropuerto Viejo                          30  
##  2 sevilla Alfalfa                                   20.3
##  3 sevilla Amate                                     23.4
##  4 sevilla an Roque                                  15.8
##  5 sevilla Arbol Gordo                               15  
##  6 sevilla Arenal                                    20.6
##  7 sevilla Avda. de la Paz                           22.8
##  8 sevilla Bami                                      22.5
##  9 sevilla Barrio Len                              19.3
## 10 sevilla Bda. de Pineda                             7  
## # ... with 93 more rows
…
## 1 mallorca Entire home/apt              2266.
## 2 mallorca Hotel room                   4085.
## 3 mallorca Private room                  838.
## 4 mallorca Shared room                   480.
## # A tibble: 6 x 3
## # Groups:   city [1]
##   city     bedrooms average_revenue_30
##   <chr>    <chr>                 <dbl>
## 1 mallorca 1                     1166.
## 2 mallorca 2                     1574.
## 3 mallorca 3                     1875.
## 4 mallorca 4                     2682.
## 5 mallorca 5+                    4576.
## 6 mallorca <NA>                  1995.
## # A tibble: 53 x 3
## # Groups:   city [1]
##    city     neighbourhood_cleansed average_revenue_30
##    <chr>    <chr>                               <dbl>
##  1 mallorca Alar                              2460.
##  2 mallorca Alcdia                            1936.
##  3 mallorca Algaida                             1918.
##  4 mallorca Andratx                             3870.
##  5 mallorca Ariany                              2208.
##  6 mallorca Art                               1734.
##  7 mallorca Banyalbufar                         1692.
##  8 mallorca Bger                              2585.
##  9 mallorca Binissalem                          2576.
## 10 mallorca Bunyola                             2685.
## # ... with 43 more rows
…
## 2 sevilla Hotel room                    810.
## 3 sevilla Private room                  530.
## 4 sevilla Shared room                   911.
## # A tibble: 7 x 3
## # Groups:   city [1]
##   city    bedrooms average_revenue_30
##   <chr>   <chr>                 <dbl>
## 1 sevilla 0                      738.
## 2 sevilla 1                      736.
## 3 sevilla 2                     1321.
## 4 sevilla 3                     1440.
## 5 sevilla 4                     1559.
## 6 sevilla 5+                    2227.
## 7 sevilla <NA>                   120 
## # A tibble: 103 x 3
## # Groups:   city [1]
##    city    neighbourhood_cleansed average_revenue_30
##    <chr>   <chr>                               <dbl>
##  1 sevilla Aeropuerto Viejo                       0 
##  2 sevilla Alfalfa                              973.
##  3 sevilla Amate                                203 
##  4 sevilla an Roque                             989.
##  5 sevilla Arbol Gordo                         2250 
##  6 sevilla Arenal                              1032.
##  7 sevilla Avda. de la Paz                      201.
##  8 sevilla Bami                                 630.
##  9 sevilla Barrio Len                         353.
## 10 sevilla Bda. de Pineda                      1334 
## # ... with 93 more rows
…
distribution of availability for the next 30 days per each city and neighborhood

Availability30_top_10_neighborhood <- listings %>%
  group_by(city, neighbourhood_cleansed) %>%
  summarise(sum_avai30 = sum(availability_30)) %>%
  top_n(10)
  #arrange(city, desc(sum_avai30))

Availability30_top_10_neighborhood

## # A tibble: 30 x 3
## # Groups:   city [3]
##    city   neighbourhood_cleansed sum_avai30
##    <chr>  <chr>                       <int>
##  1 malaga Bailen-Miraflores            2734
##  2 malaga Carretera de Cadiz           8668
##  3 malaga Centro                      80705
##  4 malaga Churriana                    1655
##  5 malaga Ciudad Jardin                 658
##  6 malaga Cruz De Humilladero          5524
##  7 malaga Este                         9901
##  8 malaga Palma-Palmilla                649
##  9 malaga Puerto de la Torre            463
## 10 malaga Teatinos-Universidad         2023
## # ... with 20 more rows
…
distribution of revenue over the next 30 days for each neighborhood and each city

Revenue30_top_10_neighborhood <- listings %>%
  group_by(city, neighbourhood_cleansed) %>%
  summarise(sum_revenue30 = sum(revenue_30)) %>%
  top_n(10)

Revenue30_top_10_neighborhood

## # A tibble: 30 x 3
## # Groups:   city [3]
##    city   neighbourhood_cleansed sum_revenue30
##    <chr>  <chr>                          <dbl>
##  1 malaga Bailen-Miraflores             118879
##  2 malaga Carretera de Cadiz            626730
##  3 malaga Centro                       4725473
##  4 malaga Churriana                     210566
##  5 malaga Ciudad Jardin                  66730
##  6 malaga Cruz De Humilladero           191613
##  7 malaga Este                         1144821
##  8 malaga Palma-Palmilla                 66885
##  9 malaga Puerto de la Torre             67446
## 10 malaga Teatinos-Universidad           83514
## # ... with 20 more rows
…
