Airbnb data analysis
…
top_10_neighborhood <- listings %>%
  group_by(city) %>%
  count(neighbourhood_cleansed) %>%
  top_n(10)

## Selecting by n

top_10_neighborhood

## # A tibble: 30 x 3
## # Groups:   city [3]
##    city   neighbourhood_cleansed     n
##    <chr>  <chr>                  <int>
##  1 malaga Bailen-Miraflores        165
##  2 malaga Carretera de Cadiz       539
##  3 malaga Centro                  4327
##  4 malaga Churriana                 99
##  5 malaga Ciudad Jardin             50
##  6 malaga Cruz De Humilladero      287
##  7 malaga Este                     643
##  8 malaga Palma-Palmilla            41
##  9 malaga Puerto de la Torre        31
## 10 malaga Teatinos-Universidad     101
## # ... with 20 more rows
…
What is the average availability over the next 30 days for each room type /house size / neighborhood?

listings %>%
  group_by(city, room_type, bedrooms, neighbourhood_cleansed) %>%
  summarise(average_availability_30 = mean(availability_30))

## `summarise()` regrouping output by 'city', 'room_type', 'bedrooms' (override with `.groups` argument)

## # A tibble: 1,118 x 5
## # Groups:   city, room_type, bedrooms [52]
##    city   room_type       bedrooms neighbourhood_cleansed average_availability_~
##    <chr>  <chr>           <chr>    <chr>                                   <dbl>
##  1 malaga Entire home/apt 0        Bailen-Miraflores                        19  
##  2 malaga Entire home/apt 0        Campanillas                              29  
##  3 malaga Entire home/apt 0        Carretera de Cadiz                       21.3
##  4 malaga Entire home/apt 0        Centro                                   18.9
##  5 malaga Entire home/apt 0        Churriana                                20.1
##  6 malaga Entire home/apt 0        Ciudad Jardin                            15  
##  7 malaga Entire home/apt 0        Cruz De Humilladero                      19  
##  8 malaga Entire home/apt 0        Este                                     14.1
##  9 malaga Entire home/apt 0        Palma-Palmilla                           17  
## 10 malaga Entire home/apt 0        Puerto de la Torre                       30  
## # ... with 1,108 more rows

What is the average revenue over the next 30 days for each room type / house size / neighborhood?

listings %>%
  group_by(city, room_type, bedrooms, neighbourhood_cleansed) %>%
  summarise(average_revenue_30 = mean(revenue_30))

## `summarise()` regrouping output by 'city', 'room_type', 'bedrooms' (override with `.groups` argument)

## # A tibble: 1,118 x 5
## # Groups:   city, room_type, bedrooms [52]
##    city   room_type       bedrooms neighbourhood_cleansed average_revenue_30
##    <chr>  <chr>           <chr>    <chr>                               <dbl>
##  1 malaga Entire home/apt 0        Bailen-Miraflores                    468 
##  2 malaga Entire home/apt 0        Campanillas                           50 
##  3 malaga Entire home/apt 0        Carretera de Cadiz                   720.
##  4 malaga Entire home/apt 0        Centro                               827.
##  5 malaga Entire home/apt 0        Churriana                            812.
##  6 malaga Entire home/apt 0        Ciudad Jardin                       1210 
##  7 malaga Entire home/apt 0        Cruz De Humilladero                  467.
##  8 malaga Entire home/apt 0        Este                                1004.
##  9 malaga Entire home/apt 0        Palma-Palmilla                       616 
## 10 malaga Entire home/apt 0        Puerto de la Torre                     0 
## # ... with 1,108 more rows
…
